{
  "project_info": {
    "project_number": "619492166912",
    "project_id": "agrav-echoes",
    "storage_bucket": "agrav-echoes.appspot.com"
  },
  "client": [
    {
      "client_info": {
        "mobilesdk_app_id": "1:619492166912:android:4e19666287ac2b62da77e5",
        "android_client_info": {
          "package_name": "pt.isep.agrav.team2.echoes"
        }
      },
      "oauth_client": [
        {
          "client_id": "619492166912-58i5l7vg2qs7csoetsr8v1e5jrcs65nl.apps.googleusercontent.com",
          "client_type": 3
        }
      ],
      "api_key": [
        {
          "current_key": "AIzaSyB0papksovEijhaIV78KZk7gURclBOHXgc"
        }
      ],
      "services": {
        "appinvite_service": {
          "other_platform_oauth_client": [
            {
              "client_id": "619492166912-58i5l7vg2qs7csoetsr8v1e5jrcs65nl.apps.googleusercontent.com",
              "client_type": 3
            }
          ]
        }
      }
    }
  ],
  "configuration_version": "1"
}